-- Merging decision tree log ---
manifest
ADDED from Z:\Desktop\Android project\SuiviDeVosFrais\app\src\main\AndroidManifest.xml:2:1-46:12
	package
		ADDED from Z:\Desktop\Android project\SuiviDeVosFrais\app\src\main\AndroidManifest.xml:3:5-38
		INJECTED from Z:\Desktop\Android project\SuiviDeVosFrais\app\src\main\AndroidManifest.xml
		INJECTED from Z:\Desktop\Android project\SuiviDeVosFrais\app\src\main\AndroidManifest.xml
	xmlns:android
		ADDED from Z:\Desktop\Android project\SuiviDeVosFrais\app\src\main\AndroidManifest.xml:2:11-69
application
ADDED from Z:\Desktop\Android project\SuiviDeVosFrais\app\src\main\AndroidManifest.xml:4:5-42:19
	android:label
		ADDED from Z:\Desktop\Android project\SuiviDeVosFrais\app\src\main\AndroidManifest.xml:7:9-41
	android:allowBackup
		ADDED from Z:\Desktop\Android project\SuiviDeVosFrais\app\src\main\AndroidManifest.xml:5:9-35
	android:icon
		ADDED from Z:\Desktop\Android project\SuiviDeVosFrais\app\src\main\AndroidManifest.xml:6:9-45
	android:theme
		ADDED from Z:\Desktop\Android project\SuiviDeVosFrais\app\src\main\AndroidManifest.xml:8:9-40
activity#com.gsb.suividevosfrais.MainActivity
ADDED from Z:\Desktop\Android project\SuiviDeVosFrais\app\src\main\AndroidManifest.xml:9:9-17:20
	android:label
		ADDED from Z:\Desktop\Android project\SuiviDeVosFrais\app\src\main\AndroidManifest.xml:11:13-45
	android:name
		ADDED from Z:\Desktop\Android project\SuiviDeVosFrais\app\src\main\AndroidManifest.xml:10:13-64
intent-filter#android.intent.action.MAIN+android.intent.category.LAUNCHER
ADDED from Z:\Desktop\Android project\SuiviDeVosFrais\app\src\main\AndroidManifest.xml:12:13-16:29
action#android.intent.action.MAIN
ADDED from Z:\Desktop\Android project\SuiviDeVosFrais\app\src\main\AndroidManifest.xml:13:17-69
	android:name
		ADDED from Z:\Desktop\Android project\SuiviDeVosFrais\app\src\main\AndroidManifest.xml:13:25-66
category#android.intent.category.LAUNCHER
ADDED from Z:\Desktop\Android project\SuiviDeVosFrais\app\src\main\AndroidManifest.xml:15:17-77
	android:name
		ADDED from Z:\Desktop\Android project\SuiviDeVosFrais\app\src\main\AndroidManifest.xml:15:27-74
activity#com.gsb.suividevosfrais.KmActivity
ADDED from Z:\Desktop\Android project\SuiviDeVosFrais\app\src\main\AndroidManifest.xml:18:9-21:20
	android:label
		ADDED from Z:\Desktop\Android project\SuiviDeVosFrais\app\src\main\AndroidManifest.xml:20:13-60
	android:name
		ADDED from Z:\Desktop\Android project\SuiviDeVosFrais\app\src\main\AndroidManifest.xml:19:13-62
activity#com.gsb.suividevosfrais.NuiteeActivity
ADDED from Z:\Desktop\Android project\SuiviDeVosFrais\app\src\main\AndroidManifest.xml:22:9-25:20
	android:label
		ADDED from Z:\Desktop\Android project\SuiviDeVosFrais\app\src\main\AndroidManifest.xml:24:13-60
	android:name
		ADDED from Z:\Desktop\Android project\SuiviDeVosFrais\app\src\main\AndroidManifest.xml:23:13-66
activity#com.gsb.suividevosfrais.RepasActivity
ADDED from Z:\Desktop\Android project\SuiviDeVosFrais\app\src\main\AndroidManifest.xml:26:9-29:20
	android:label
		ADDED from Z:\Desktop\Android project\SuiviDeVosFrais\app\src\main\AndroidManifest.xml:28:13-47
	android:name
		ADDED from Z:\Desktop\Android project\SuiviDeVosFrais\app\src\main\AndroidManifest.xml:27:13-65
activity#com.gsb.suividevosfrais.EtapeActivity
ADDED from Z:\Desktop\Android project\SuiviDeVosFrais\app\src\main\AndroidManifest.xml:30:9-33:20
	android:label
		ADDED from Z:\Desktop\Android project\SuiviDeVosFrais\app\src\main\AndroidManifest.xml:32:13-47
	android:name
		ADDED from Z:\Desktop\Android project\SuiviDeVosFrais\app\src\main\AndroidManifest.xml:31:13-65
activity#com.gsb.suividevosfrais.HfActivity
ADDED from Z:\Desktop\Android project\SuiviDeVosFrais\app\src\main\AndroidManifest.xml:34:9-37:20
	android:label
		ADDED from Z:\Desktop\Android project\SuiviDeVosFrais\app\src\main\AndroidManifest.xml:36:13-54
	android:name
		ADDED from Z:\Desktop\Android project\SuiviDeVosFrais\app\src\main\AndroidManifest.xml:35:13-62
activity#com.gsb.suividevosfrais.HfRecapActivity
ADDED from Z:\Desktop\Android project\SuiviDeVosFrais\app\src\main\AndroidManifest.xml:38:9-41:20
	android:label
		ADDED from Z:\Desktop\Android project\SuiviDeVosFrais\app\src\main\AndroidManifest.xml:40:13-60
	android:name
		ADDED from Z:\Desktop\Android project\SuiviDeVosFrais\app\src\main\AndroidManifest.xml:39:13-67
uses-permission#android.permission.INTERNET
ADDED from Z:\Desktop\Android project\SuiviDeVosFrais\app\src\main\AndroidManifest.xml:44:5-66
	android:name
		ADDED from Z:\Desktop\Android project\SuiviDeVosFrais\app\src\main\AndroidManifest.xml:44:22-64
uses-sdk
INJECTED from Z:\Desktop\Android project\SuiviDeVosFrais\app\src\main\AndroidManifest.xml reason: use-sdk injection requested
	android:targetSdkVersion
		INJECTED from Z:\Desktop\Android project\SuiviDeVosFrais\app\src\main\AndroidManifest.xml
		INJECTED from Z:\Desktop\Android project\SuiviDeVosFrais\app\src\main\AndroidManifest.xml
	android:minSdkVersion
		INJECTED from Z:\Desktop\Android project\SuiviDeVosFrais\app\src\main\AndroidManifest.xml
		INJECTED from Z:\Desktop\Android project\SuiviDeVosFrais\app\src\main\AndroidManifest.xml
